(kicad_sch (version 20211123) (generator eeschema)

  (uuid 6ead2ebb-21db-40e5-9c73-b10c32641bef)

  (paper "A4")

  (lib_symbols
    (symbol "Connector:Conn_Coaxial" (pin_names (offset 1.016) hide) (in_bom yes) (on_board yes)
      (property "Reference" "J" (id 0) (at 0.254 3.048 0)
        (effects (font (size 1.27 1.27)))
      )
      (property "Value" "Conn_Coaxial" (id 1) (at 2.921 0 90)
        (effects (font (size 1.27 1.27)))
      )
      (property "Footprint" "" (id 2) (at 0 0 0)
        (effects (font (size 1.27 1.27)) hide)
      )
      (property "Datasheet" " ~" (id 3) (at 0 0 0)
        (effects (font (size 1.27 1.27)) hide)
      )
      (property "ki_keywords" "BNC SMA SMB SMC LEMO coaxial connector CINCH RCA" (id 4) (at 0 0 0)
        (effects (font (size 1.27 1.27)) hide)
      )
      (property "ki_description" "coaxial connector (BNC, SMA, SMB, SMC, Cinch/RCA, LEMO, ...)" (id 5) (at 0 0 0)
        (effects (font (size 1.27 1.27)) hide)
      )
      (property "ki_fp_filters" "*BNC* *SMA* *SMB* *SMC* *Cinch* *LEMO*" (id 6) (at 0 0 0)
        (effects (font (size 1.27 1.27)) hide)
      )
      (symbol "Conn_Coaxial_0_1"
        (arc (start -1.778 -0.508) (mid 0.2311 -1.8066) (end 1.778 0)
          (stroke (width 0.254) (type default) (color 0 0 0 0))
          (fill (type none))
        )
        (polyline
          (pts
            (xy -2.54 0)
            (xy -0.508 0)
          )
          (stroke (width 0) (type default) (color 0 0 0 0))
          (fill (type none))
        )
        (polyline
          (pts
            (xy 0 -2.54)
            (xy 0 -1.778)
          )
          (stroke (width 0) (type default) (color 0 0 0 0))
          (fill (type none))
        )
        (circle (center 0 0) (radius 0.508)
          (stroke (width 0.2032) (type default) (color 0 0 0 0))
          (fill (type none))
        )
        (arc (start 1.778 0) (mid 0.2099 1.8101) (end -1.778 0.508)
          (stroke (width 0.254) (type default) (color 0 0 0 0))
          (fill (type none))
        )
      )
      (symbol "Conn_Coaxial_1_1"
        (pin passive line (at -5.08 0 0) (length 2.54)
          (name "In" (effects (font (size 1.27 1.27))))
          (number "1" (effects (font (size 1.27 1.27))))
        )
        (pin passive line (at 0 -5.08 90) (length 2.54)
          (name "Ext" (effects (font (size 1.27 1.27))))
          (number "2" (effects (font (size 1.27 1.27))))
        )
      )
    )
    (symbol "Device:C" (pin_numbers hide) (pin_names (offset 0.254)) (in_bom yes) (on_board yes)
      (property "Reference" "C" (id 0) (at 0.635 2.54 0)
        (effects (font (size 1.27 1.27)) (justify left))
      )
      (property "Value" "C" (id 1) (at 0.635 -2.54 0)
        (effects (font (size 1.27 1.27)) (justify left))
      )
      (property "Footprint" "" (id 2) (at 0.9652 -3.81 0)
        (effects (font (size 1.27 1.27)) hide)
      )
      (property "Datasheet" "~" (id 3) (at 0 0 0)
        (effects (font (size 1.27 1.27)) hide)
      )
      (property "ki_keywords" "cap capacitor" (id 4) (at 0 0 0)
        (effects (font (size 1.27 1.27)) hide)
      )
      (property "ki_description" "Unpolarized capacitor" (id 5) (at 0 0 0)
        (effects (font (size 1.27 1.27)) hide)
      )
      (property "ki_fp_filters" "C_*" (id 6) (at 0 0 0)
        (effects (font (size 1.27 1.27)) hide)
      )
      (symbol "C_0_1"
        (polyline
          (pts
            (xy -2.032 -0.762)
            (xy 2.032 -0.762)
          )
          (stroke (width 0.508) (type default) (color 0 0 0 0))
          (fill (type none))
        )
        (polyline
          (pts
            (xy -2.032 0.762)
            (xy 2.032 0.762)
          )
          (stroke (width 0.508) (type default) (color 0 0 0 0))
          (fill (type none))
        )
      )
      (symbol "C_1_1"
        (pin passive line (at 0 3.81 270) (length 2.794)
          (name "~" (effects (font (size 1.27 1.27))))
          (number "1" (effects (font (size 1.27 1.27))))
        )
        (pin passive line (at 0 -3.81 90) (length 2.794)
          (name "~" (effects (font (size 1.27 1.27))))
          (number "2" (effects (font (size 1.27 1.27))))
        )
      )
    )
    (symbol "Device:L" (pin_numbers hide) (pin_names (offset 1.016) hide) (in_bom yes) (on_board yes)
      (property "Reference" "L" (id 0) (at -1.27 0 90)
        (effects (font (size 1.27 1.27)))
      )
      (property "Value" "L" (id 1) (at 1.905 0 90)
        (effects (font (size 1.27 1.27)))
      )
      (property "Footprint" "" (id 2) (at 0 0 0)
        (effects (font (size 1.27 1.27)) hide)
      )
      (property "Datasheet" "~" (id 3) (at 0 0 0)
        (effects (font (size 1.27 1.27)) hide)
      )
      (property "ki_keywords" "inductor choke coil reactor magnetic" (id 4) (at 0 0 0)
        (effects (font (size 1.27 1.27)) hide)
      )
      (property "ki_description" "Inductor" (id 5) (at 0 0 0)
        (effects (font (size 1.27 1.27)) hide)
      )
      (property "ki_fp_filters" "Choke_* *Coil* Inductor_* L_*" (id 6) (at 0 0 0)
        (effects (font (size 1.27 1.27)) hide)
      )
      (symbol "L_0_1"
        (arc (start 0 -2.54) (mid 0.635 -1.905) (end 0 -1.27)
          (stroke (width 0) (type default) (color 0 0 0 0))
          (fill (type none))
        )
        (arc (start 0 -1.27) (mid 0.635 -0.635) (end 0 0)
          (stroke (width 0) (type default) (color 0 0 0 0))
          (fill (type none))
        )
        (arc (start 0 0) (mid 0.635 0.635) (end 0 1.27)
          (stroke (width 0) (type default) (color 0 0 0 0))
          (fill (type none))
        )
        (arc (start 0 1.27) (mid 0.635 1.905) (end 0 2.54)
          (stroke (width 0) (type default) (color 0 0 0 0))
          (fill (type none))
        )
      )
      (symbol "L_1_1"
        (pin passive line (at 0 3.81 270) (length 1.27)
          (name "1" (effects (font (size 1.27 1.27))))
          (number "1" (effects (font (size 1.27 1.27))))
        )
        (pin passive line (at 0 -3.81 90) (length 1.27)
          (name "2" (effects (font (size 1.27 1.27))))
          (number "2" (effects (font (size 1.27 1.27))))
        )
      )
    )
    (symbol "RadarRX:BGA7H1N6" (in_bom yes) (on_board yes)
      (property "Reference" "U" (id 0) (at 5.08 10.16 0)
        (effects (font (size 1.27 1.27)))
      )
      (property "Value" "BGA7H1N6" (id 1) (at 10.16 -10.16 0)
        (effects (font (size 1.27 1.27)))
      )
      (property "Footprint" "RadarTX:BGA7H1N6" (id 2) (at 17.78 7.62 0)
        (effects (font (size 1.27 1.27)) hide)
      )
      (property "Datasheet" "https://www.infineon.com/dgdl/Infineon-BGA7H1N6-DS-v03_01-en.pdf?fileId=db3a304344e406b50144e45ad9af02ca" (id 3) (at -2.54 22.86 0)
        (effects (font (size 1.27 1.27)) hide)
      )
      (property "ki_keywords" "LNA" (id 4) (at 0 0 0)
        (effects (font (size 1.27 1.27)) hide)
      )
      (property "ki_description" "LNA" (id 5) (at 0 0 0)
        (effects (font (size 1.27 1.27)) hide)
      )
      (property "ki_fp_filters" "BGA7H1N6*" (id 6) (at 0 0 0)
        (effects (font (size 1.27 1.27)) hide)
      )
      (symbol "BGA7H1N6_0_1"
        (rectangle (start -7.62 7.62) (end 7.62 -7.62)
          (stroke (width 0.254) (type default) (color 0 0 0 0))
          (fill (type background))
        )
      )
      (symbol "BGA7H1N6_1_1"
        (pin power_in line (at 0 -10.16 90) (length 2.54)
          (name "GND" (effects (font (size 1.27 1.27))))
          (number "1" (effects (font (size 1.27 1.27))))
        )
        (pin power_in line (at 0 10.16 270) (length 2.54)
          (name "VCC" (effects (font (size 1.27 1.27))))
          (number "2" (effects (font (size 1.27 1.27))))
        )
        (pin input line (at 10.16 0 180) (length 2.54)
          (name "AO" (effects (font (size 1.27 1.27))))
          (number "3" (effects (font (size 1.27 1.27))))
        )
        (pin passive line (at 0 -10.16 90) (length 2.54) hide
          (name "GND" (effects (font (size 1.27 1.27))))
          (number "4" (effects (font (size 1.27 1.27))))
        )
        (pin input line (at -10.16 0 0) (length 2.54)
          (name "AI" (effects (font (size 1.27 1.27))))
          (number "5" (effects (font (size 1.27 1.27))))
        )
        (pin input line (at -10.16 5.08 0) (length 2.54)
          (name "PON" (effects (font (size 1.27 1.27))))
          (number "6" (effects (font (size 1.27 1.27))))
        )
      )
    )
    (symbol "power:GND" (power) (pin_names (offset 0)) (in_bom yes) (on_board yes)
      (property "Reference" "#PWR" (id 0) (at 0 -6.35 0)
        (effects (font (size 1.27 1.27)) hide)
      )
      (property "Value" "GND" (id 1) (at 0 -3.81 0)
        (effects (font (size 1.27 1.27)))
      )
      (property "Footprint" "" (id 2) (at 0 0 0)
        (effects (font (size 1.27 1.27)) hide)
      )
      (property "Datasheet" "" (id 3) (at 0 0 0)
        (effects (font (size 1.27 1.27)) hide)
      )
      (property "ki_keywords" "global power" (id 4) (at 0 0 0)
        (effects (font (size 1.27 1.27)) hide)
      )
      (property "ki_description" "Power symbol creates a global label with name \"GND\" , ground" (id 5) (at 0 0 0)
        (effects (font (size 1.27 1.27)) hide)
      )
      (symbol "GND_0_1"
        (polyline
          (pts
            (xy 0 0)
            (xy 0 -1.27)
            (xy 1.27 -1.27)
            (xy 0 -2.54)
            (xy -1.27 -1.27)
            (xy 0 -1.27)
          )
          (stroke (width 0) (type default) (color 0 0 0 0))
          (fill (type none))
        )
      )
      (symbol "GND_1_1"
        (pin power_in line (at 0 0 270) (length 0) hide
          (name "GND" (effects (font (size 1.27 1.27))))
          (number "1" (effects (font (size 1.27 1.27))))
        )
      )
    )
  )


  (wire (pts (xy 100.33 95.25) (xy 100.33 96.52))
    (stroke (width 0) (type default) (color 0 0 0 0))
    (uuid 09a7343f-d0f9-47d4-849c-042100200b1b)
  )
  (wire (pts (xy 139.7 100.33) (xy 139.7 101.6))
    (stroke (width 0) (type default) (color 0 0 0 0))
    (uuid 0a69e731-9b09-49cd-9590-c91ecfec78f4)
  )
  (wire (pts (xy 162.56 95.25) (xy 162.56 96.52))
    (stroke (width 0) (type default) (color 0 0 0 0))
    (uuid 342c4cb8-3621-48cc-9b33-49869f406757)
  )
  (wire (pts (xy 127 90.17) (xy 129.54 90.17))
    (stroke (width 0) (type default) (color 0 0 0 0))
    (uuid 4b7c3dcd-a699-46ce-ae82-597b9cc8c76d)
  )
  (wire (pts (xy 105.41 90.17) (xy 107.95 90.17))
    (stroke (width 0) (type default) (color 0 0 0 0))
    (uuid aad4f971-42cd-4400-ad9e-39afca711c6f)
  )
  (wire (pts (xy 149.86 90.17) (xy 157.48 90.17))
    (stroke (width 0) (type default) (color 0 0 0 0))
    (uuid ab396abf-5bc1-4a62-bfa7-0d92bb9daf2e)
  )
  (wire (pts (xy 115.57 90.17) (xy 119.38 90.17))
    (stroke (width 0) (type default) (color 0 0 0 0))
    (uuid c3f37460-c2ba-4c28-ac8c-13951df7445e)
  )

  (symbol (lib_id "power:GND") (at 100.33 96.52 0) (unit 1)
    (in_bom yes) (on_board yes) (fields_autoplaced)
    (uuid 1973f30b-e39f-445e-b53e-61a3f48dc173)
    (property "Reference" "#PWR?" (id 0) (at 100.33 102.87 0)
      (effects (font (size 1.27 1.27)) hide)
    )
    (property "Value" "GND" (id 1) (at 100.33 101.6 0))
    (property "Footprint" "" (id 2) (at 100.33 96.52 0)
      (effects (font (size 1.27 1.27)) hide)
    )
    (property "Datasheet" "" (id 3) (at 100.33 96.52 0)
      (effects (font (size 1.27 1.27)) hide)
    )
    (pin "1" (uuid 706473d6-8509-4d3d-b2e1-24102e6c3320))
  )

  (symbol (lib_id "Connector:Conn_Coaxial") (at 162.56 90.17 0) (unit 1)
    (in_bom yes) (on_board yes) (fields_autoplaced)
    (uuid 1ed21878-1235-4ea7-9855-118473349405)
    (property "Reference" "J?" (id 0) (at 165.1 89.1931 0)
      (effects (font (size 1.27 1.27)) (justify left))
    )
    (property "Value" "Conn_Coaxial" (id 1) (at 165.1 91.7331 0)
      (effects (font (size 1.27 1.27)) (justify left))
    )
    (property "Footprint" "" (id 2) (at 162.56 90.17 0)
      (effects (font (size 1.27 1.27)) hide)
    )
    (property "Datasheet" " ~" (id 3) (at 162.56 90.17 0)
      (effects (font (size 1.27 1.27)) hide)
    )
    (pin "1" (uuid 4911d220-f12b-4c62-98b2-c3e3029c4b8d))
    (pin "2" (uuid edd9e8ac-28cd-4097-83fb-c5aa82b28056))
  )

  (symbol (lib_id "Connector:Conn_Coaxial") (at 100.33 90.17 0) (mirror y) (unit 1)
    (in_bom yes) (on_board yes) (fields_autoplaced)
    (uuid 8ac3a81b-645a-455f-b826-1a6050bdbe16)
    (property "Reference" "J?" (id 0) (at 100.6474 82.55 0))
    (property "Value" "Conn_Coaxial" (id 1) (at 100.6474 85.09 0))
    (property "Footprint" "" (id 2) (at 100.33 90.17 0)
      (effects (font (size 1.27 1.27)) hide)
    )
    (property "Datasheet" " ~" (id 3) (at 100.33 90.17 0)
      (effects (font (size 1.27 1.27)) hide)
    )
    (pin "1" (uuid 4bff3a5c-8233-41c8-a6d8-856a407ce463))
    (pin "2" (uuid 3ea80804-a9ff-41c1-9aaf-96072f5ee0c3))
  )

  (symbol (lib_id "Device:C") (at 147.32 72.39 0) (unit 1)
    (in_bom yes) (on_board yes) (fields_autoplaced)
    (uuid 9525d7b6-8327-4f91-850f-fce11c8ca7b9)
    (property "Reference" "C?" (id 0) (at 151.13 71.1199 0)
      (effects (font (size 1.27 1.27)) (justify left))
    )
    (property "Value" "C" (id 1) (at 151.13 73.6599 0)
      (effects (font (size 1.27 1.27)) (justify left))
    )
    (property "Footprint" "" (id 2) (at 148.2852 76.2 0)
      (effects (font (size 1.27 1.27)) hide)
    )
    (property "Datasheet" "~" (id 3) (at 147.32 72.39 0)
      (effects (font (size 1.27 1.27)) hide)
    )
    (pin "1" (uuid 78a34a98-3e01-45a0-a97d-112b9c3ed294))
    (pin "2" (uuid 96ef60c5-db99-4c04-875c-c062d321bf55))
  )

  (symbol (lib_id "RadarRX:BGA7H1N6") (at 139.7 90.17 0) (unit 1)
    (in_bom yes) (on_board yes)
    (uuid a389a5fd-8915-4cbf-a4c6-d36044f2d0b9)
    (property "Reference" "U?" (id 0) (at 144.78 81.28 0))
    (property "Value" "BGA7H1N6" (id 1) (at 147.32 99.06 0))
    (property "Footprint" "RadarTX:BGA7H1N6" (id 2) (at 157.48 82.55 0)
      (effects (font (size 1.27 1.27)) hide)
    )
    (property "Datasheet" "https://www.infineon.com/dgdl/Infineon-BGA7H1N6-DS-v03_01-en.pdf?fileId=db3a304344e406b50144e45ad9af02ca" (id 3) (at 137.16 67.31 0)
      (effects (font (size 1.27 1.27)) hide)
    )
    (pin "1" (uuid 0124f7e8-d0c1-4921-bf0c-cb3eed2149de))
    (pin "2" (uuid 7344c8a5-0724-4819-9bd4-8b30344da7bd))
    (pin "3" (uuid fa1fe7bd-ba82-483a-ad7c-0f76db9b7ae9))
    (pin "4" (uuid 1b84148c-4741-4fd6-bf39-802c4dcc5cd9))
    (pin "5" (uuid 141f2629-bc00-427e-be6d-92082ac8081c))
    (pin "6" (uuid af4e6255-85be-4d0a-836a-9aeda8379c33))
  )

  (symbol (lib_id "power:GND") (at 162.56 96.52 0) (unit 1)
    (in_bom yes) (on_board yes) (fields_autoplaced)
    (uuid a874e149-d125-4bb0-bb89-5edc422d1c07)
    (property "Reference" "#PWR?" (id 0) (at 162.56 102.87 0)
      (effects (font (size 1.27 1.27)) hide)
    )
    (property "Value" "GND" (id 1) (at 162.56 101.6 0))
    (property "Footprint" "" (id 2) (at 162.56 96.52 0)
      (effects (font (size 1.27 1.27)) hide)
    )
    (property "Datasheet" "" (id 3) (at 162.56 96.52 0)
      (effects (font (size 1.27 1.27)) hide)
    )
    (pin "1" (uuid ef612529-af89-44eb-ae8c-2da3b967da21))
  )

  (symbol (lib_id "Device:L") (at 123.19 90.17 90) (unit 1)
    (in_bom yes) (on_board yes) (fields_autoplaced)
    (uuid afe263f6-d477-4c22-9569-604dad208117)
    (property "Reference" "L?" (id 0) (at 123.19 83.82 90))
    (property "Value" "L" (id 1) (at 123.19 86.36 90))
    (property "Footprint" "" (id 2) (at 123.19 90.17 0)
      (effects (font (size 1.27 1.27)) hide)
    )
    (property "Datasheet" "~" (id 3) (at 123.19 90.17 0)
      (effects (font (size 1.27 1.27)) hide)
    )
    (pin "1" (uuid db505131-07b2-48be-a10d-4cce5ebd166c))
    (pin "2" (uuid 44f9cb56-9325-4711-9bfd-5315c45d73e2))
  )

  (symbol (lib_id "power:GND") (at 139.7 101.6 0) (unit 1)
    (in_bom yes) (on_board yes) (fields_autoplaced)
    (uuid f85283cd-26b6-4b9a-9614-7cbfa31472bf)
    (property "Reference" "#PWR?" (id 0) (at 139.7 107.95 0)
      (effects (font (size 1.27 1.27)) hide)
    )
    (property "Value" "GND" (id 1) (at 139.7 106.68 0))
    (property "Footprint" "" (id 2) (at 139.7 101.6 0)
      (effects (font (size 1.27 1.27)) hide)
    )
    (property "Datasheet" "" (id 3) (at 139.7 101.6 0)
      (effects (font (size 1.27 1.27)) hide)
    )
    (pin "1" (uuid ff9bb290-7bfa-491a-899c-8c7974197060))
  )

  (symbol (lib_id "Device:C") (at 111.76 90.17 90) (unit 1)
    (in_bom yes) (on_board yes) (fields_autoplaced)
    (uuid fe339b5b-a9e6-4279-a74f-26df2a7f17ca)
    (property "Reference" "C?" (id 0) (at 111.76 82.55 90))
    (property "Value" "C" (id 1) (at 111.76 85.09 90))
    (property "Footprint" "" (id 2) (at 115.57 89.2048 0)
      (effects (font (size 1.27 1.27)) hide)
    )
    (property "Datasheet" "~" (id 3) (at 111.76 90.17 0)
      (effects (font (size 1.27 1.27)) hide)
    )
    (pin "1" (uuid 7e82f65e-13c5-4e53-b2e5-9955e9e39ff1))
    (pin "2" (uuid 6da9cfbb-dedb-4783-85fa-fed3d9bb1cc8))
  )

  (sheet_instances
    (path "/" (page "1"))
  )

  (symbol_instances
    (path "/1973f30b-e39f-445e-b53e-61a3f48dc173"
      (reference "#PWR?") (unit 1) (value "GND") (footprint "")
    )
    (path "/a874e149-d125-4bb0-bb89-5edc422d1c07"
      (reference "#PWR?") (unit 1) (value "GND") (footprint "")
    )
    (path "/f85283cd-26b6-4b9a-9614-7cbfa31472bf"
      (reference "#PWR?") (unit 1) (value "GND") (footprint "")
    )
    (path "/9525d7b6-8327-4f91-850f-fce11c8ca7b9"
      (reference "C?") (unit 1) (value "C") (footprint "")
    )
    (path "/fe339b5b-a9e6-4279-a74f-26df2a7f17ca"
      (reference "C?") (unit 1) (value "C") (footprint "")
    )
    (path "/1ed21878-1235-4ea7-9855-118473349405"
      (reference "J?") (unit 1) (value "Conn_Coaxial") (footprint "")
    )
    (path "/8ac3a81b-645a-455f-b826-1a6050bdbe16"
      (reference "J?") (unit 1) (value "Conn_Coaxial") (footprint "")
    )
    (path "/afe263f6-d477-4c22-9569-604dad208117"
      (reference "L?") (unit 1) (value "L") (footprint "")
    )
    (path "/a389a5fd-8915-4cbf-a4c6-d36044f2d0b9"
      (reference "U?") (unit 1) (value "BGA7H1N6") (footprint "RadarTX:BGA7H1N6")
    )
  )
)
